Place,Name,CyrillicName,Country,BirthDate,BodyweightKg,Bench1Kg,Bench2Kg,Bench3Kg,Bench4Kg,Deadlift1Kg,Deadlift2Kg,Deadlift3Kg,Deadlift4Kg,TotalKg,WeightClassKg,Division,Sex,Event,Equipment,Tested,Best3BenchKg,Best3DeadliftKg,BirthYear
1,Mikhaylo Korobko,Михайло Коробко,Ukraine,1997-01-22,85.3,102.5,107.5,110,,160,175,190,,300,90,Amateur Juniors 20-23,M,BD,Raw,Yes,110,190,1997
1,Daniil Krivtsun,Данііл Кривцун,Ukraine,1997-01-06,97.6,140,145,150,,190,200,-205,,350,100,Amateur Juniors 20-23,M,BD,Raw,Yes,150,200,1997
1,Kostyantin Kovalenko,Костянтин Коваленко,Ukraine,1990-02-13,72.9,110,-120,-120,,160,170,,,280,75,Amateur Open,M,BD,Raw,Yes,110,170,1990
1,Valentin Kalinin,Валентин Калінін,Ukraine,1985-04-28,81.6,125,-130,-130,,202.5,210,215,,340,82.5,Amateur Open,M,BD,Raw,Yes,125,215,1985
2,Dmitro Galik,Дмитро Галік,Ukraine,1992-06-26,82.5,100,105,-110,,195,205,-210,,310,82.5,Amateur Open,M,BD,Raw,Yes,105,205,1992
1,Vitaliy Chumak,Віталій Чумак,Ukraine,1992-11-13,85,-132.5,132.5,137.5,,210,-217.5,-217.5,,347.5,90,Amateur Open,M,BD,Raw,Yes,137.5,210,1992
2,Anton Zhdanov,Антон Жданов,Ukraine,1988-11-14,86.7,120,-130,-130,,170,182.5,190,,310,90,Amateur Open,M,BD,Raw,Yes,120,190,1988
1,Ruslan Kuyan,Руслан Куян,Ukraine,1987-07-04,98.2,145,157.5,162.5,,217.5,230,240,,402.5,100,Amateur Open,M,BD,Raw,Yes,162.5,240,1987
2,Mikhaylo Belichenko,Михайло Бєліченко,Ukraine,1982-08-14,99,130,-140,140,,-230,230,240,,380,100,Amateur Open,M,BD,Raw,Yes,140,240,1982
1,Mikhaylo Belichenko,Михайло Бєліченко,Ukraine,1982-08-14,99,130,-140,140,,-230,230,240,,380,100,Amateur Submasters 33-39,M,BD,Raw,Yes,140,240,1982
1,Vitaliy Chumak,Віталій Чумак,Ukraine,1992-11-13,85,-132.5,132.5,137.5,,210,-217.5,-217.5,,347.5,90,Amateur Military/Fire/Police,M,BD,Raw,Yes,137.5,210,1992
1,Olga Lapina #1,Ольга Лапіна,Ukraine,1985-01-28,54.3,-65,65,-67.5,,90,105,-115,,170,56,Amateur Open,F,BD,Raw,Yes,65,105,1985
2,Katerina Yarushina,Катерина Ярушина,Ukraine,1990-11-06,53.9,47.5,50,-52.5,,110,115,117.5,,167.5,56,Amateur Open,F,BD,Raw,Yes,50,117.5,1990
3,Lyubov Bestaeva,Любов Бестаєва,Ukraine,1985-11-29,55.6,47.5,50,52.5,,92.5,97.5,-102.5,,150,56,Amateur Open,F,BD,Raw,Yes,52.5,97.5,1985
4,Irina Palval,Ірина Пальваль,Ukraine,1984-02-08,56,30,-35,-35,,90,100,105,,135,56,Amateur Open,F,BD,Raw,Yes,30,105,1984
1,Olga Shavkun,Ольга Шавкун,Ukraine,1994-04-12,59.8,55,62.5,65,,110,120,125,,190,60,Amateur Open,F,BD,Raw,Yes,65,125,1994
DQ,Nataliya Zhdanova,Наталія Жданова,Ukraine,1989-11-23,82.5,-50,-50,-52.5,,-122.5,,,,,82.5,Amateur Open,F,BD,Raw,Yes,,,1989
1,Olga Lapina #1,Ольга Лапіна,Ukraine,1985-01-28,54.3,-65,65,-67.5,,90,105,-115,,170,56,Amateur Submasters 33-39,F,BD,Raw,Yes,65,105,1985
2,Irina Palval,Ірина Пальваль,Ukraine,1984-02-08,56,30,-35,-35,,90,100,105,,135,56,Amateur Submasters 33-39,F,BD,Raw,Yes,30,105,1984
1,Olena Lyubimova,Олена Любімова,Ukraine,1975-01-03,55.2,-60,-60,60,,80,90,100,,160,56,Amateur Masters 40-44,F,BD,Raw,Yes,60,100,1975
1,Vladislav Kravchenko #1,Владислав Кравченко,Ukraine,1995-03-17,80.3,140,147.5,152.5,,290,-300,-300,,442.5,82.5,Pro Juniors 20-23,M,BD,Raw,No,152.5,290,1995
1,Glib Orlovskiy,Гліб Орловський,Ukraine,1987-11-17,62.2,90,100,-102.5,,140,150,155,,255,67.5,Pro Open,M,BD,Raw,No,100,155,1987
1,Vladislav Kravchenko #1,Владислав Кравченко,Ukraine,1995-03-17,80.3,140,147.5,152.5,,290,-300,-300,,442.5,82.5,Pro Open,M,BD,Raw,No,152.5,290,1995
2,Sergiy Baranenko,Сергій Бараненко,Ukraine,1983-09-28,77.3,140,145,-150,,190,205,212.5,,357.5,82.5,Pro Open,M,BD,Raw,No,145,212.5,1983
1,Evgen Vasyuk,Євген Васюк,Ukraine,1993-10-25,89.2,160,-170,-170,,270,-275,-275,,430,90,Pro Open,M,BD,Raw,No,160,270,1993
2,Sergiy Mazur,Сергій Мазур,Ukraine,1981-06-01,88.1,-160,160,-165,,240,260,-270,,420,90,Pro Open,M,BD,Raw,No,160,260,1981
4,Evgen Ganzha,Євген Ганжа,Ukraine,,86.8,135,-140,-140,,200,-210,210,,345,90,Pro Open,M,BD,Raw,No,135,210,
5,Sergiy Romantsov,Сергій Романцов,Ukraine,1964-02-07,86.6,-120,130,-135,,-170,170,180,,310,110,Pro Open,M,BD,Raw,No,130,180,1964
1,Oleksiy Panenko,Олексій Паненко,Ukraine,1980-10-04,103.8,150,-155,-155,,250,-270,-270,,400,110,Pro Open,M,BD,Raw,No,150,250,1980
DQ,Vyacheslav Vakhrushev,Вячеслав Вахрушев,Ukraine,1977-08-17,78.8,-130,-130,-130,,-170,,,,,82.5,Pro Masters 40-44,M,BD,Raw,No,,,1977
1,Sergiy Balod,Сергій Балод,Ukraine,1975-03-03,95.6,145,-152.5,152.5,,220,230,-235,,382.5,100,Pro Masters 40-44,M,BD,Raw,No,152.5,230,1975
1,Oleg Cherchel,,Moldova,1978-02-15,104.6,120,130,-137.5,,205,215,-220,,345,110,Pro Masters 40-44,M,BD,Raw,No,130,215,1978
1,Sergiy Romantsov,Сергій Романцов,Ukraine,1964-02-07,86.6,-120,130,-135,,-170,170,180,,310,90,Pro Masters 50-54,M,BD,Raw,No,130,180,1964
1,Bogdan Sukhovarov,Богдан Суховаров,Ukraine,2003-06-26,54.8,40,45,-50,,,,,,45,56,Amateur Teen 13-15,M,B,Raw,Yes,45,,2003
1,Denis Mamiko,Денис Мамико,Ukraine,2003-06-27,72.6,80,85,-90,,,,,,85,75,Amateur Teen 13-15,M,B,Raw,Yes,85,,2003
1,Sergiy Korsun,Сергій Корсун,Ukraine,1997-09-02,71.6,155,160,-162.5,,,,,,160,75,Amateur Juniors 20-23,M,B,Raw,Yes,160,,1997
1,Viktor Bordichev,Віктор Бордичев,Ukraine,1997-07-14,86.7,145,155,-160,,,,,,155,90,Amateur Juniors 20-23,M,B,Raw,Yes,155,,1997
1,Daniil Krivtsun,Данііл Кривцун,Ukraine,1997-01-06,97.6,140,145,150,,,,,,150,100,Amateur Juniors 20-23,M,B,Raw,Yes,150,,1997
1,Bogdan Sukhovarov,Богдан Суховаров,Ukraine,2003-06-26,54.8,40,45,-50,,,,,,45,56,Amateur Open,M,B,Raw,Yes,45,,2003
1,Roman Golishev,Роман Голишев,Ukraine,1991-03-07,64,125,130,-132.5,,,,,,130,67.5,Amateur Open,M,B,Raw,Yes,130,,1991
1,Sergiy Korsun,Сергій Корсун,Ukraine,1997-09-02,71.6,155,160,-162.5,,,,,,160,75,Amateur Open,M,B,Raw,Yes,160,,1997
2,Oleksiy Drach,Олексій Драч,Ukraine,1993-06-13,74.6,-140,140,147.5,,,,,,147.5,75,Amateur Open,M,B,Raw,Yes,147.5,,1993
3,Yuriy Romanov #2,Юрій Романов,Ukraine,1992-11-16,75,-125,125,-127.5,,,,,,125,75,Amateur Open,M,B,Raw,Yes,125,,1992
1,Sergiy Chichikalo,Сергій Чичикало,Ukraine,1993-06-08,78.7,120,130,140,,,,,,140,82.5,Amateur Open,M,B,Raw,Yes,140,,1993
2,Yaroslav Kogut,Ярослав Когут,Ukraine,1992-10-13,78.6,115,122.5,-127.5,,,,,,122.5,82.5,Amateur Open,M,B,Raw,Yes,122.5,,1992
1,Oleksandr Klimenko #3,Олександр Кліменко,Ukraine,1990-03-03,85.9,150,155,162.5,,,,,,162.5,90,Amateur Open,M,B,Raw,Yes,162.5,,1990
2,Evgen Kitaygorodskiy,Євген Китайгородський,Ukraine,1989-02-13,84.8,140,145,-147.5,,,,,,145,90,Amateur Open,M,B,Raw,Yes,145,,1989
3,Dmitro Tsilyurik,Дмитро Цилюрик,Ukraine,1981-12-13,88.5,140,145,-150,,,,,,145,90,Amateur Open,M,B,Raw,Yes,145,,1981
4,Vitaliy Chumak,Віталій Чумак,Ukraine,1992-11-13,85,-132.5,132.5,137.5,,,,,,137.5,90,Amateur Open,M,B,Raw,Yes,137.5,,1992
1,Oleksiy Shulgin,Олексій Шульгін,Ukraine,1984-10-18,97.3,160,165,167.5,,,,,,167.5,100,Amateur Open,M,B,Raw,Yes,167.5,,1984
2,Ruslan Kuyan,Руслан Куян,Ukraine,1987-07-04,98.2,145,157.5,162.5,,,,,,162.5,100,Amateur Open,M,B,Raw,Yes,162.5,,1987
3,Daniil Krivtsun,Данііл Кривцун,Ukraine,1997-01-06,97.6,140,145,150,,,,,,150,100,Amateur Open,M,B,Raw,Yes,150,,1997
1,Volodimir Brizhenyuk,Володимир Бриженюк,Ukraine,1987-05-30,103.3,170,175,180,,,,,,180,110,Amateur Open,M,B,Raw,Yes,180,,1987
DQ,Maksim Savchenko,Максим Савченко,Ukraine,1984-06-26,80.5,-130,-130,-130,,,,,,,82.5,Amateur Submasters 33-39,M,B,Raw,Yes,,,1984
1,Oleksiy Shulgin,Олексій Шульгін,Ukraine,1984-10-18,97.3,160,165,167.5,,,,,,167.5,100,Amateur Submasters 33-39,M,B,Raw,Yes,167.5,,1984
2,Mikhaylo Belichenko,Михайло Бєліченко,Ukraine,1982-08-14,99,130,-140,140,,,,,,140,100,Amateur Submasters 33-39,M,B,Raw,Yes,140,,1982
1,Igor Radets,Ігор Радець,Ukraine,1974-02-02,88,122.5,127.5,132.5,,,,,,132.5,90,Amateur Masters 40-44,M,B,Raw,Yes,132.5,,1974
1,Evgen Sitnikov,Євген Ситніков,Ukraine,1973-01-08,75,130,137.5,-142.5,,,,,,137.5,75,Amateur Masters 45-49,M,B,Raw,Yes,137.5,,1973
DQ,Oleksandr Kashinskiy,Олександр Кашинський,Ukraine,1972-12-09,95,-172.5,-172.5,-172.5,,,,,,,100,Amateur Masters 45-49,M,B,Raw,Yes,,,1972
1,Taras Ilyushchenko,Тарас Ілющенко,Ukraine,1992-05-30,99.7,-130,-130,130,,,,,,130,100,Amateur Military/Fire/Police,M,B,Raw,Yes,130,,1992
1,Anastasiya Telyatnikova,Анастасія Телятнікова,Ukraine,2000-07-20,51.1,35,40,-42.5,,,,,,40,52,Amateur Teen 16-17,F,B,Raw,Yes,40,,2000
1,Sevda Kondrashova,Севда Кондрашова,Ukraine,1995-01-23,51.8,42.5,47.5,-50,,,,,,47.5,52,Amateur Juniors 20-23,F,B,Raw,Yes,47.5,,1995
2,Darya Litvinova #1,Дарья Літвінова,Ukraine,1997-03-04,50.9,40,-47.5,-47.5,,,,,,40,52,Amateur Juniors 20-23,F,B,Raw,Yes,40,,1997
1,Margarita Kasparova,Маргарита Каспарова,Ukraine,1995-02-28,61,55,60,-65,,,,,,60,67.5,Amateur Juniors 20-23,F,B,Raw,Yes,60,,1995
1,Katerina Atamanska,Катерина Атаманська,Ukraine,1992-11-25,48,45,50,52.5,,,,,,52.5,48,Amateur Open,F,B,Raw,Yes,52.5,,1992
1,Nadiya Bilanchuk,Надія Біланчук,Ukraine,1989-03-20,54,50,55,60,,,,,,60,56,Amateur Open,F,B,Raw,Yes,60,,1989
2,Lyubov Bestaeva,Любов Бестаєва,Ukraine,1985-11-29,55.6,47.5,50,52.5,,,,,,52.5,56,Amateur Open,F,B,Raw,Yes,52.5,,1985
3,Katerina Yarushina,Катерина Ярушина,Ukraine,1990-11-06,53.9,47.5,50,-52.5,,,,,,50,56,Amateur Open,F,B,Raw,Yes,50,,1990
1,Svitlana Ovzyak,Світлана Овзяк,Ukraine,1983-07-07,60,47.5,55,-57.5,,,,,,55,60,Amateur Open,F,B,Raw,Yes,55,,1983
1,Nataliya Zhdanova,Наталія Жданова,Ukraine,1989-11-23,82.5,40,45,-50,,,,,,45,82.5,Amateur Open,F,B,Raw,Yes,45,,1989
1,Olga Lapina #1,Ольга Лапіна,Ukraine,1985-01-28,54.3,-65,65,-67.5,,,,,,65,56,Amateur Submasters 33-39,F,B,Raw,Yes,65,,1985
1,Irina Goloviychuk,Ірина Головійчук,Ukraine,1979-07-30,59.6,57.5,65,67.5,,,,,,67.5,60,Amateur Submasters 33-39,F,B,Raw,Yes,67.5,,1979
1,Olena Lyubimova,Олена Любімова,Ukraine,1975-01-03,55.2,-60,-60,60,,,,,,60,56,Amateur Masters 40-44,F,B,Raw,Yes,60,,1975
1,Vladislav Kravchenko #1,Владислав Кравченко,Ukraine,1995-03-17,80.3,140,147.5,152.5,,,,,,152.5,82.5,Pro Juniors 20-23,M,B,Raw,No,152.5,,1995
1,Yuriy Kukhar,Юрій Кухар,Ukraine,1982-08-02,62.1,102.5,107.5,110,,,,,,110,67.5,Pro Open,M,B,Raw,No,110,,1982
1,Yuriy Pets,Юрій Пець,Ukraine,1988-04-07,82.5,150,155,-157.5,,,,,,155,82.5,Pro Open,M,B,Raw,No,155,,1988
2,Sergiy Baranenko,Сергій Бараненко,Ukraine,1983-09-28,77.3,140,145,-150,,,,,,145,82.5,Pro Open,M,B,Raw,No,145,,1983
1,Sergiy Mazur,Сергій Мазур,Ukraine,1981-06-01,88.1,-160,160,-165,,,,,,160,90,Pro Open,M,B,Raw,No,160,,1981
2,Evgen Vasyuk,Євген Васюк,Ukraine,1993-10-25,89.2,160,-170,-170,,,,,,160,90,Pro Open,M,B,Raw,No,160,,1993
1,Danilo Shmatovskiy,Данило Шматовський,Ukraine,1983-08-05,95.2,217.5,-227.5,-227.5,,,,,,217.5,100,Pro Open,M,B,Raw,No,217.5,,1983
2,Maksim Nechausov,Максим Нечаусов,Ukraine,1972-03-04,96.7,155,165,-170,,,,,,165,100,Pro Open,M,B,Raw,No,165,,1972
3,Anton Chirkov,Антон Чирков,Ukraine,1993-08-27,93.9,147.5,-155,-155,,,,,,147.5,100,Pro Open,M,B,Raw,No,147.5,,1993
1,Anton Fedichev,Антон Федічев,Ukraine,1982-09-15,109.5,162.5,-167.5,-167.5,,,,,,162.5,110,Pro Open,M,B,Raw,No,162.5,,1982
1,Yuriy Kukhar,Юрій Кухар,Ukraine,1982-08-02,62.1,102.5,107.5,110,,,,,,110,67.5,Pro Submasters 33-39,M,B,Raw,No,110,,1982
1,Danilo Shmatovskiy,Данило Шматовський,Ukraine,1983-08-05,95.2,217.5,-227.5,-227.5,,,,,,217.5,100,Pro Submasters 33-39,M,B,Raw,No,217.5,,1983
1,Anton Fedichev,Антон Федічев,Ukraine,1982-09-15,109.5,162.5,-167.5,-167.5,,,,,,162.5,110,Pro Submasters 33-39,M,B,Raw,No,162.5,,1982
1,Sergiy Balod,Сергій Балод,Ukraine,1975-03-03,95.6,145,-152.5,152.5,,,,,,152.5,100,Pro Masters 40-44,M,B,Raw,No,152.5,,1975
1,Sergiy Prokofev #1,Сергій Прокофьєв,Ukraine,1970-06-25,89.7,150,-155,155,,,,,,155,90,Pro Masters 45-49,M,B,Raw,No,155,,1970
1,Maksim Nechausov,Максим Нечаусов,Ukraine,1972-03-04,96.7,155,165,-170,,,,,,165,100,Pro Masters 45-49,M,B,Raw,No,165,,1972
2,Andriy Shemenov,Андрій Шеменьов,Ukraine,1970-08-05,98.6,150,165,-172.5,,,,,,165,100,Pro Masters 45-49,M,B,Raw,No,165,,1970
1,Sergiy Avramenko,Сергій Авраменко,Ukraine,1971-08-16,113.9,115,117.5,120,,,,,,120,125,Pro Masters 45-49,M,B,Raw,No,120,,1971
1,Sergiy Avramenko,Сергій Авраменко,Ukraine,1971-08-16,113.9,115,117.5,120,,,,,,120,125,Pro Military/Fire/Police,M,B,Raw,No,120,,1971
1,Artem Gudzenko,Артем Гудзенко,Ukraine,1988-04-10,48.3,120,125,-130,,,,,,125,52,Pro Paralympian,M,B,Raw,No,125,,1988
1,Viktoriya Demura,Вікторія Демура,Ukraine,1985-02-27,47.4,40,45,-47.5,,,,,,45,48,Pro Open,F,B,Raw,No,45,,1985
1,Yulia Shenkarenko,Юлія Шенкаренко,Ukraine,1986-12-23,66.4,110,120,125,,,,,,125,67.5,Pro Open,F,B,Raw,No,125,,1986
1,Volodimir Kononov,Володимир Кононов,Ukraine,1996-09-21,75,,,,,185,195,205,,205,75,Amateur Juniors 20-23,M,D,Raw,Yes,,205,1996
1,Evgen Nikolenko,Євген Ніколенко,Ukraine,1994-11-27,86.3,,,,,215,225,230,,230,90,Amateur Juniors 20-23,M,D,Raw,Yes,,230,1994
2,Mikhaylo Korobko,Михайло Коробко,Ukraine,1997-01-22,85.3,,,,,160,175,190,,190,90,Amateur Juniors 20-23,M,D,Raw,Yes,,190,1997
1,Artur Yushin,Артур Юшин,Ukraine,1993-12-23,73.1,,,,,250,265,275,,275,75,Amateur Open,M,D,Raw,Yes,,275,1993
1,Valentin Kalinin,Валентин Калінін,Ukraine,1985-04-28,81.6,,,,,202.5,210,215,,215,82.5,Amateur Open,M,D,Raw,Yes,,215,1985
2,Dmitro Galik,Дмитро Галік,Ukraine,1992-06-26,82.5,,,,,195,205,-210,,205,82.5,Amateur Open,M,D,Raw,Yes,,205,1992
1,Evgen Nikolenko,Євген Ніколенко,Ukraine,1994-11-27,86.3,,,,,215,225,230,,230,90,Amateur Open,M,D,Raw,Yes,,230,1994
2,Valeriy Oberemok,Валерій Оберемок,Ukraine,1993-07-22,87.4,,,,,200,220,-240,,220,90,Amateur Open,M,D,Raw,Yes,,220,1993
3,Vitaliy Chumak,Віталій Чумак,Ukraine,1992-11-13,85,,,,,210,-217.5,-217.5,,210,90,Amateur Open,M,D,Raw,Yes,,210,1992
4,Sergiy Stolbtsov,Сергій Столбцов,Ukraine,1988-03-08,89.2,,,,,190,202.5,210,,210,90,Amateur Open,M,D,Raw,Yes,,210,1988
1,Ruslan Kozak,Руслан Козак,Ukraine,1986-09-07,92,,,,,230,240,-250,,240,100,Amateur Open,M,D,Raw,Yes,,240,1986
2,Ruslan Kuyan,Руслан Куян,Ukraine,1987-07-04,98.2,,,,,217.5,230,240,,240,100,Amateur Open,M,D,Raw,Yes,,240,1987
3,Mikhaylo Belichenko,Михайло Бєліченко,Ukraine,1982-08-14,99,,,,,-230,230,240,,240,100,Amateur Open,M,D,Raw,Yes,,240,1982
1,Sergiy Gaydrikh,Сергій Гайдрих,Ukraine,1993-04-22,108.9,,,,,280,300,-305,,300,110,Amateur Open,M,D,Raw,Yes,,300,1993
1,Ivan Timokhin,Іван Тімохін,Ukraine,1980-08-10,90,,,,,190,195,-200,,195,90,Amateur Submasters 33-39,M,D,Raw,Yes,,195,1980
1,Mikhaylo Belichenko,Михайло Бєліченко,Ukraine,1982-08-14,99,,,,,-230,230,240,,240,100,Amateur Submasters 33-39,M,D,Raw,Yes,,240,1982
1,Ruslan Kozak,Руслан Козак,Ukraine,1986-09-07,92,,,,,230,240,-250,,240,100,Amateur Military/Fire/Police,M,D,Raw,Yes,,240,1986
1,Veronika Dubova,Вероніка Дубова,Ukraine,2002-09-05,67.2,,,,,100,105,-112.5,,105,67.5,Amateur Teen 13-15,F,D,Raw,Yes,,105,2002
1,Kseniya Mukhachova,Ксенія Мухачова,Ukraine,2001-12-31,59.5,,,,,130,140,145,,145,60,Amateur Teen 16-17,F,D,Raw,Yes,,145,2001
1,Ganna Sivakova,Ганна Сівакова,Ukraine,1997-10-19,52,,,,,115,125,135,,135,52,Amateur Juniors 20-23,F,D,Raw,Yes,,135,1997
2,Sevda Kondrashova,Севда Кондрашова,Ukraine,1995-01-23,51.8,,,,,90,95,100,,100,52,Amateur Juniors 20-23,F,D,Raw,Yes,,100,1995
1,Katerina Yarushina,Катерина Ярушина,Ukraine,1990-11-06,53.9,,,,,110,115,117.5,,117.5,56,Amateur Open,F,D,Raw,Yes,,117.5,1990
2,Irina Palval,Ірина Пальваль,Ukraine,1984-02-08,56,,,,,90,100,105,,105,56,Amateur Open,F,D,Raw,Yes,,105,1984
1,Olga Shavkun,Ольга Шавкун,Ukraine,1994-04-12,59.8,,,,,110,120,125,,125,60,Amateur Open,F,D,Raw,Yes,,125,1994
2,Yuliya Demenko,Юлія Деменко,Ukraine,1989-09-08,58.4,,,,,90,95,105,,105,60,Amateur Open,F,D,Raw,Yes,,105,1989
1,Nataliya Zhdanova,Наталія Жданова,Ukraine,1989-11-23,82.5,,,,,115,122.5,-132.5,,122.5,82.5,Amateur Open,F,D,Raw,Yes,,122.5,1989
1,Irina Palval,Ірина Пальваль,Ukraine,1984-02-08,56,,,,,90,100,105,,105,56,Amateur Submasters 33-39,F,D,Raw,Yes,,105,1984
1,Oleksandr Lukachinets,Олександр Лукачинець,Ukraine,1997-02-11,74.5,,,,,210,220,225,,225,75,Pro Juniors 20-23,M,D,Raw,No,,225,1997
1,Vladislav Kravchenko #1,Владислав Кравченко,Ukraine,1995-03-17,80.3,,,,,290,-300,-300,,290,82.5,Pro Juniors 20-23,M,D,Raw,No,,290,1995
1,Evgeniy Timokhin,Євгеній Тимохін,Ukraine,1997-08-29,88.6,,,,,227.5,-242.5,-242.5,,227.5,90,Pro Juniors 20-23,M,D,Raw,No,,227.5,1997
1,Boris Novoselov,Борис Новоселов,Ukraine,1992-02-27,69,,,,,205,212,,,212,75,Pro Open,M,D,Raw,No,,212,1992
1,Vladislav Kravchenko #1,Владислав Кравченко,Ukraine,1995-03-17,80.3,,,,,290,-300,-300,,290,82.5,Pro Open,M,D,Raw,No,,290,1995
2,Vladislav Surov,Владислав Суров,Ukraine,1993-05-29,81.4,,,,,200,-210,-210,,200,82.5,Pro Open,M,D,Raw,No,,200,1993
1,Sergiy Mazur,Сергій Мазур,Ukraine,1981-06-01,88.1,,,,,240,260,-270,,260,90,Pro Open,M,D,Raw,No,,260,1981
3,Artem Andryushchenko,Артем Андрющенко,Ukraine,1987-07-23,87,,,,,220,230,242.5,,242.5,90,Pro Open,M,D,Raw,No,,242.5,1987
1,Roman Krasitskiy,Роман Красицький,Ukraine,1980-08-24,107.1,,,,,225,230,240,,240,110,Pro Open,M,D,Raw,No,,240,1980
1,Oleksandr Litvin,Олександр Литвин,Ukraine,1978-10-10,95.6,,,,,210,220,-225,,220,100,Pro Submasters 33-39,M,D,Raw,No,,220,1978
1,Vyacheslav Vakhrushev,Вячеслав Вахрушев,Ukraine,1977-08-17,81.7,,,,,160,-180,-180,,160,82.5,Pro Masters 40-44,M,D,Raw,No,,160,1977
1,Sergiy Balod,Сергій Балод,Ukraine,1975-03-03,95.6,,,,,220,230,-235,,230,100,Pro Masters 40-44,M,D,Raw,No,,230,1975
1,Valeriya Sukonkina,Валерія Суконкіна,Ukraine,1983-12-05,59.2,,,,,130,-140,140,,140,60,Pro Open,F,D,Raw,No,,140,1983
1,Yulia Shenkarenko,Юлія Шенкаренко,Ukraine,1986-12-23,66.4,,,,,190,200,-210,,200,67.5,Pro Open,F,D,Raw,No,,200,1986
1,Vladislav Nesteruk,Владислав Нестерук,Ukraine,1994-07-23,81.5,,,,,-57.5,57.5,65,,65,82.5,Pro Juniors 20-23,M,D,Raw,No,,65,1994
1,Evgeniy Timokhin,Євгеній Тимохін,Ukraine,1997-08-29,88.6,,,,,-55,55,62,65,62,90,Pro Juniors 20-23,M,D,Raw,No,,62,1997
1,Sergiy Mazur,Сергій Мазур,Ukraine,1981-06-01,88.1,,,,,-55,-55,62,,62,90,Pro Open,M,D,Raw,No,,62,1981
1,Oleksiy Panenko,Олексій Паненко,Ukraine,1980-10-04,103.8,,,,,70,75,77,,77,110,Pro Open,M,D,Raw,No,,77,1980
2,Vyacheslav Teslyuk,Вячеслав Теслюк,Ukraine,1994-02-12,105.8,,,,,65,70,76,,76,110,Pro Open,M,D,Raw,No,,76,1994
1,Mikola Prezhin,Микола Прежин,Ukraine,1981-10-10,122.4,,,,,70,80,85,90,85,125,Pro Open,M,D,Raw,No,,85,1981
1,Mikola Prezhin,Микола Прежин,Ukraine,1981-10-10,122.4,,,,,70,80,85,90,85,125,Pro Submasters 33-39,M,D,Raw,No,,85,1981
1,Oleksandr Sokolov,Олександр Соколов,Ukraine,1972-11-26,74.2,,,,,61,65,67,,67,75,Pro Masters 40-44,M,D,Raw,No,,67,1972
1,Evgen Sitnikov,Євген Ситніков,Ukraine,1973-01-08,75,,,,,61,67,-70,,67,75,Pro Masters 45-49,M,D,Raw,No,,67,1973
1,Katerina Atamanska,Катерина Атаманська,Ukraine,1992-11-25,48,,,,,25,27,-29,,27,48,Pro Open,F,D,Raw,No,,27,1992
