Name,WeightClassKg,Division,Best3SquatKg,Best3BenchKg,Best3DeadliftKg,TotalKg,Sex,Event,Equipment,Place,Team
Jenny Gomez,60,F-T2,49.9,45.36,97.52,192.78,F,SBD,Single-ply,1,
Brian Kimbrell,67.5,M-T2,99.79,77.11,102.06,278.96,M,SBD,Single-ply,1,
Brian Beals,82.5,M-T2,122.47,92.99,102.06,317.51,M,SBD,Single-ply,1,
Troy Hill,90,M-O,213.19,172.37,201.85,587.4,M,SBD,Single-ply,1,
Joe Baker,100,M-O,210.92,138.35,226.8,576.06,M,SBD,Single-ply,1,
Gary Whitlow,100,M-M1,210.92,156.49,201.85,569.26,M,SBD,Single-ply,1,
Robert Nordbrok,100,M-O,181.44,,,,M,SBD,Single-ply,DQ,
Jerry Whitlow,110,M-M5,204.12,167.83,204.12,576.06,M,SBD,Single-ply,1,
Louis Tavison,110,M-O,142.88,142.88,181.44,467.2,M,SBD,Single-ply,1,
